^C:\USERS\7522998\DOCUMENTS\CRYPTO\CRYPTOGRAPHY PORTFOLIO\FREQUENCY ANALYSIS\FREQUENCY ANALYSIS\X64\DEBUG\MAIN.OBJ
C:\USERS\7522998\DOCUMENTS\CRYPTO\CRYPTOGRAPHY PORTFOLIO\FREQUENCY ANALYSIS\FREQUENCY ANALYSIS\X64\DEBUG\FREQUENCY ANALYSIS.EXE
C:\USERS\7522998\DOCUMENTS\CRYPTO\CRYPTOGRAPHY PORTFOLIO\FREQUENCY ANALYSIS\FREQUENCY ANALYSIS\X64\DEBUG\FREQUENCY ANALYSIS.ILK
C:\USERS\7522998\DOCUMENTS\CRYPTO\CRYPTOGRAPHY PORTFOLIO\FREQUENCY ANALYSIS\FREQUENCY ANALYSIS\X64\DEBUG\FREQUENCY ANALYSIS.PDB
